{ 
    
    "lamp": [
        
        {
            "density": 2, "friction": 0, "bounce": 0, 
            "filter": { "categoryBits": 1, "maskBits": 65535 },
            "shape": [   28, 87  ,  0, 87  ,  0, 80  ,  10, 79  ,  27, 79  ]
        } ,
        {
            "density": 2, "friction": 0, "bounce": 0, 
            "filter": { "categoryBits": 1, "maskBits": 65535 },
            "shape": [   28, 26  ,  0, 26  ,  7, 1  ,  20, 0  ]
        } ,
        {
            "density": 2, "friction": 0, "bounce": 0, 
            "filter": { "categoryBits": 1, "maskBits": 65535 },
            "shape": [   10, 79  ,  10, 26  ,  18, 26  ,  18, 79  ]
        }
    ]
    , 
    "sofa": [
        
        {
            "density": 2, "friction": 0, "bounce": 0, 
            "filter": { "categoryBits": 1, "maskBits": 65535 },
            "shape": [   1, 45  ,  0, 20  ,  5, 19  ,  53, 19  ,  53, 45  ]
        } ,
        {
            "density": 2, "friction": 0, "bounce": 0, 
            "filter": { "categoryBits": 1, "maskBits": 65535 },
            "shape": [   49, 19  ,  5, 19  ,  5, 1  ,  47, 0  ]
        }
    ]
    , 
    "table": [
        
        {
            "density": 2, "friction": 0, "bounce": 0, 
            "filter": { "categoryBits": 1, "maskBits": 65535 },
            "shape": [   56, 0  ,  53, 36  ,  5, 37  ,  1, 0  ]
        }
    ]
    , 
    "tv": [
        
        {
            "density": 2, "friction": 0, "bounce": 0, 
            "filter": { "categoryBits": 1, "maskBits": 65535 },
            "shape": [   2, 48  ,  0, 14  ,  26, 12  ,  36, 12  ,  43, 14  ,  43, 48  ]
        } ,
        {
            "density": 2, "friction": 0, "bounce": 0, 
            "filter": { "categoryBits": 1, "maskBits": 65535 },
            "shape": [   43, 14  ,  36, 12  ,  42, 12  ]
        } ,
        {
            "density": 2, "friction": 0, "bounce": 0, 
            "filter": { "categoryBits": 1, "maskBits": 65535 },
            "shape": [   26, 12  ,  0, 14  ,  8, 12  ]
        }
    ]
    , 
    "car_roof": [
        
        {
            "density": 2, "friction": 0, "bounce": 0, 
            "filter": { "categoryBits": 1, "maskBits": 65535 },
            "shape": [   1, 6  ,  1, 2  ,  221, 1  ,  222, 6  ]
        }
    ]
    , 
    "car_spritesheet_gap": [
        
        {
            "density": 2, "friction": 0, "bounce": 0, 
            "filter": { "categoryBits": 1, "maskBits": 65535 },
            "shape": [   281, 110  ,  264, 112  ,  259, 109  ,  223, 49  ,  281, 49  ]
        } ,
        {
            "density": 2, "friction": 0, "bounce": 0, 
            "filter": { "categoryBits": 1, "maskBits": 65535 },
            "shape": [   20, 125  ,  17, 115  ,  65, 115  ,  61, 128  ,  37, 136  ]
        } ,
        {
            "density": 2, "friction": 0, "bounce": 0, 
            "filter": { "categoryBits": 1, "maskBits": 65535 },
            "shape": [   245, 133  ,  230, 134  ,  220, 130  ,  214, 115  ,  217, 103  ,  259, 109  ,  256, 127  ]
        } ,
        {
            "density": 2, "friction": 0, "bounce": 0, 
            "filter": { "categoryBits": 1, "maskBits": 65535 },
            "shape": [   223, 49  ,  217, 103  ,  217, 7  ,  223, 7  ]
        } ,
        {
            "density": 2, "friction": 0, "bounce": 0, 
            "filter": { "categoryBits": 1, "maskBits": 65535 },
            "shape": [   259, 109  ,  217, 103  ,  223, 49  ]
        } ,
        {
            "density": 2, "friction": 0, "bounce": 0, 
            "filter": { "categoryBits": 1, "maskBits": 65535 },
            "shape": [   17, 115  ,  1, 113  ,  7, 102  ,  217, 103  ,  214, 115  ]
        } ,
        {
            "density": 2, "friction": 0, "bounce": 0, 
            "filter": { "categoryBits": 1, "maskBits": 65535 },
            "shape": [   2, 1  ,  7, 7  ,  7, 102  ,  1, 113  ]
        } ,
        {
            "density": 2, "friction": 0, "bounce": 0, 
            "filter": { "categoryBits": 1, "maskBits": 65535 },
            "shape": [   221, 1  ,  223, 6  ,  7, 7  ,  2, 1  ]
        }
    ]
}
